Home
…
Getting predictions on the simple regression model

Supposing we like the fit model, we can then generate predictions
based on it.

Important to pass the data set where we based the predictions on.

lm_fit %>% 
  predict(new_data = Boston)

# A tibble: 506 × 1
   .pred
   <dbl>
 1 29.8 
 2 25.9 
 3 30.7 
 4 31.8 
 5 29.5 
 6 29.6 
 7 22.7 
 8 16.4 
 9  6.12
10 18.3 
# … with 496 more rows

To compare the observed values with the predicted ones we can use
augment()

bind_cols(
  predict(lm_fit, new_data = Boston),
  Boston
) %>% 
  dplyr::select(medv, .pred)

# A tibble: 506 × 2
    medv .pred
   <dbl> <dbl>
 1  24   29.8 
 2  21.6 25.9 
 3  34.7 30.7 
 4  33.4 31.8 
 5  36.2 29.5 
 6  28.7 29.6 
 7  22.9 22.7 
 8  27.1 16.4 
 9  16.5  6.12
10  18.9 18.3 
# … with 496 more rows
…
